sim/wave/matCtrl.vcd
$date
	Tue Dec 17 16:12:13 2024
$end
$version
	Icarus Verilog
$end
$timescale
	1ps
$end
$scope module tb_matCtrl $end
$var wire 64 ! mem1_rd_data_1 [63:0] $end
$var wire 1 " mem1_wr_en_1 $end
$var wire 1 # mem1_wr_en_0 $end
$var wire 64 $ mem1_rd_data_0 [63:0] $end
$var wire 12 % mem1_addr_1 [11:0] $end
$var wire 12 & mem1_addr_0 [11:0] $end
$var wire 1 ' mem0_wr_en_1 $end
$var wire 1 ( mem0_wr_en_0 $end
$var wire 64 ) mem0_rd_data_1 [63:0] $end
$var wire 64 * mem0_rd_data_0 [63:0] $end
$var wire 12 + mem0_addr_1 [11:0] $end
$var wire 12 , mem0_addr_0 [11:0] $end
$var wire 1 - macs_valid $end
$var wire 1 . macs_signal $end
$var wire 1 / macs_mode $end
$var wire 1 0 macs_en $end
$var wire 16 1 D_data_3 [15:0] $end
$var wire 16 2 D_data_2 [15:0] $end
$var wire 16 3 D_data_1 [15:0] $end
$var wire 16 4 D_data_0 [15:0] $end
$var wire 16 5 C_data_3 [15:0] $end
$var wire 16 6 C_data_2 [15:0] $end
$var wire 16 7 C_data_1 [15:0] $end
$var wire 16 8 C_data_0 [15:0] $end
$var wire 16 9 B_data_3 [15:0] $end
$var wire 16 : B_data_2 [15:0] $end
$var wire 16 ; B_data_1 [15:0] $end
$var wire 16 < B_data_0 [15:0] $end
$var wire 16 = A_data [15:0] $end
$var parameter 32 > PERIOD $end
$var reg 1 ? clk $end
$var reg 27 @ inst [26:0] $end
$var reg 1 A inst_valid $end
$var reg 1 B rstn $end
$scope module ram_A $end
$var wire 1 ? clk $end
$var wire 64 C din [63:0] $end
$var wire 1 D rd_en $end
$var wire 1 B rstn $end
$var wire 1 ( wr_en $end
$var wire 12 E addr [11:0] $end
$var parameter 32 F ADDR_WIDTH $end
$var parameter 32 G DATA_WIDTH $end
$var parameter 32 H DEPTH $end
$var parameter 280 I LOAD_FILE_PATH $end
$var parameter 392 J STORE_FILE_PATH $end
$var parameter 32 K TIME $end
$var reg 64 L dout [63:0] $end
$var integer 32 M i [31:0] $end
$var integer 32 N ram_file [31:0] $end
$upscope $end
$scope module ram_B $end
$var wire 1 ? clk $end
$var wire 64 O din [63:0] $end
$var wire 1 P rd_en $end
$var wire 1 B rstn $end
$var wire 1 ' wr_en $end
$var wire 12 Q addr [11:0] $end
$var parameter 32 R ADDR_WIDTH $end
$var parameter 32 S DATA_WIDTH $end
$var parameter 32 T DEPTH $end
$var parameter 280 U LOAD_FILE_PATH $end
$var parameter 392 V STORE_FILE_PATH $end
$var parameter 32 W TIME $end
$var reg 64 X dout [63:0] $end
$var integer 32 Y i [31:0] $end
$var integer 32 Z ram_file [31:0] $end
$upscope $end
$scope module ram_C $end
$var wire 1 ? clk $end
$var wire 64 [ din [63:0] $end
$var wire 1 \ rd_en $end
$var wire 1 B rstn $end
$var wire 1 # wr_en $end
$var wire 12 ] addr [11:0] $end
$var parameter 32 ^ ADDR_WIDTH $end
$var parameter 32 _ DATA_WIDTH $end
$var parameter 32 ` DEPTH $end
$var parameter 280 a LOAD_FILE_PATH $end
$var parameter 392 b STORE_FILE_PATH $end
$var parameter 32 c TIME $end
$var reg 64 d dout [63:0] $end
$var integer 32 e i [31:0] $end
$var integer 32 f ram_file [31:0] $end
$upscope $end
$scope module u_Macs $end
$var wire 1 ? clk $end
$var wire 1 B rstn $end
$var wire 1 - valid $end
$var wire 1 . signal $end
$var wire 16 g result_3 [15:0] $end
$var wire 16 h result_2 [15:0] $end
$var wire 16 i result_1 [15:0] $end
$var wire 16 j result_0 [15:0] $end
$var wire 1 / mode $end
$var wire 1 0 en $end
$var wire 16 k C_3 [15:0] $end
$var wire 16 l C_2 [15:0] $end
$var wire 16 m C_1 [15:0] $end
$var wire 16 n C_0 [15:0] $end
$var wire 16 o B_3 [15:0] $end
$var wire 16 p B_2 [15:0] $end
$var wire 16 q B_1 [15:0] $end
$var wire 16 r B_0 [15:0] $end
$var wire 16 s A_temp [15:0] $end
$var wire 16 t A [15:0] $end
$var parameter 1 u matadd $end
$var parameter 1 v matmul $end
$scope module u_PE_0 $end
$var wire 16 w A [15:0] $end
$var wire 1 ? clk $end
$var wire 1 B rstn $end
$var wire 1 0 en $end
$var wire 16 x C [15:0] $end
$var wire 16 y B [15:0] $end
$var reg 1 z mode $end
$var reg 16 { result [15:0] $end
$var reg 1 - valid $end
$upscope $end
$scope module u_PE_1 $end
$var wire 16 | A [15:0] $end
$var wire 1 ? clk $end
$var wire 1 B rstn $end
$var wire 1 0 en $end
$var wire 16 } C [15:0] $end
$var wire 16 ~ B [15:0] $end
$var reg 1 !" mode $end
$var reg 16 "" result [15:0] $end
$var reg 1 #" valid $end
$upscope $end
$scope module u_PE_2 $end
$var wire 16 $" A [15:0] $end
$var wire 1 ? clk $end
$var wire 1 B rstn $end
$var wire 1 0 en $end
$var wire 16 %" C [15:0] $end
$var wire 16 &" B [15:0] $end
$var reg 1 '" mode $end
$var reg 16 (" result [15:0] $end
$var reg 1 )" valid $end
$upscope $end
$scope module u_PE_3 $end
$var wire 16 *" A [15:0] $end
$var wire 1 ? clk $end
$var wire 1 B rstn $end
$var wire 1 0 en $end
$var wire 16 +" C [15:0] $end
$var wire 16 ," B [15:0] $end
$var reg 1 -" mode $end
$var reg 16 ." result [15:0] $end
$var reg 1 /" valid $end
$upscope $end
$upscope $end
$scope module u_matCtrl $end
$var wire 16 0" D_data_0 [15:0] $end
$var wire 16 1" D_data_1 [15:0] $end
$var wire 16 2" D_data_2 [15:0] $end
$var wire 16 3" D_data_3 [15:0] $end
$var wire 1 ? clk $end
$var wire 27 4" inst [26:0] $end
$var wire 1 A inst_valid $end
$var wire 1 - macs_valid $end
$var wire 64 5" mem0_rd_data_0 [63:0] $end
$var wire 64 6" mem0_rd_data_1 [63:0] $end
$var wire 64 7" mem0_wr_data_0 [63:0] $end
$var wire 64 8" mem0_wr_data_1 [63:0] $end
$var wire 64 9" mem1_rd_data_0 [63:0] $end
$var wire 64 :" mem1_rd_data_1 [63:0] $end
$var wire 64 ;" mem1_wr_data_0 [63:0] $end
$var wire 64 <" mem1_wr_data_1 [63:0] $end
$var wire 1 B rstn $end
$var wire 1 . macs_signal $end
$var wire 1 / macs_mode $end
$var wire 14 =" lut_addr [13:0] $end
$var wire 3 >" bia_limit [2:0] $end
$var parameter 32 ?" ADDR_WIDTH $end
$var parameter 3 @" BIA $end
$var parameter 3 A" COL $end
$var parameter 3 B" COMP $end
$var parameter 3 C" FINISH $end
$var parameter 3 D" ID $end
$var parameter 3 E" IDLE $end
$var parameter 3 F" IF $end
$var parameter 32 G" INST_WIDTH $end
$var parameter 3 H" ROW $end
$var reg 14 I" A_addr [13:0] $end
$var reg 16 J" A_data [15:0] $end
$var reg 1 K" A_width_flag $end
$var reg 14 L" B_addr [13:0] $end
$var reg 14 M" B_addr_start [13:0] $end
$var reg 16 N" B_data_0 [15:0] $end
$var reg 16 O" B_data_1 [15:0] $end
$var reg 16 P" B_data_2 [15:0] $end
$var reg 16 Q" B_data_3 [15:0] $end
$var reg 1 R" B_width_cnt $end
$var reg 1 S" B_width_flag $end
$var reg 14 T" C_addr [13:0] $end
$var reg 14 U" C_addr_temp [13:0] $end
$var reg 16 V" C_data_0 [15:0] $end
$var reg 16 W" C_data_1 [15:0] $end
$var reg 16 X" C_data_2 [15:0] $end
$var reg 16 Y" C_data_3 [15:0] $end
$var reg 14 Z" D_addr [13:0] $end
$var reg 3 [" bia [2:0] $end
$var reg 9 \" col [8:0] $end
$var reg 9 ]" col_limit [8:0] $end
$var reg 9 ^" comp [8:0] $end
$var reg 9 _" comp_limit [8:0] $end
$var reg 27 `" inst_reg [26:0] $end
$var reg 2 a" lut_cnt [1:0] $end
$var reg 4 b" lut_index [3:0] $end
$var reg 1 0 macs_en $end
$var reg 12 c" mem0_addr_0 [11:0] $end
$var reg 12 d" mem0_addr_1 [11:0] $end
$var reg 1 ( mem0_wr_en_0 $end
$var reg 1 ' mem0_wr_en_1 $end
$var reg 12 e" mem1_addr_0 [11:0] $end
$var reg 12 f" mem1_addr_1 [11:0] $end
$var reg 1 # mem1_wr_en_0 $end
$var reg 1 " mem1_wr_en_1 $end
$var reg 3 g" next_state [2:0] $end
$var reg 11 h" row [10:0] $end
$var reg 11 i" row_limit [10:0] $end
$var reg 3 j" state [2:0] $end
$scope module u_AddrLUT $end
$var wire 4 k" index [3:0] $end
$var reg 14 l" addr [13:0] $end
$upscope $end
$upscope $end
$upscope $end
$enddefinitions $end
$comment Show the parameter values. $end
$dumpall
b11 H"
b11011 G"
b1 F"
b0 E"
b10 D"
b111 C"
b110 B"
b100 A"
b101 @"
b1100 ?"
0v
1u
b10011100010000 c
b1000110001110100010111101110000011100100110111101101010011001010110001101110100001011110100011001110010011011110110010001101111001011110111001101101001011011010010111101110010011000010110110101011111011001000110000101110100011000010101111101101111011101010111010001110000011101010111010000101111010000110101111101101111011101010111010001110000011101010111010000101110011101000111100001110100 b
b100011000111010001011110111000001110010011011110110101001100101011000110111010000101111010001100111001001101111011001000110111100101111011100110110100101101101001011110101001001000001010011010010111101100100011000010111010001100001001011110100001100101110011010000110010101111000 a
b10000000000 `
b1000000 _
b1100 ^
b10011100010000 W
b1000110001110100010111101110000011100100110111101101010011001010110001101110100001011110100011001110010011011110110010001101111001011110111001101101001011011010010111101110010011000010110110101011111011001000110000101110100011000010101111101101111011101010111010001110000011101010111010000101111010000100101111101101111011101010111010001110000011101010111010000101110011101000111100001110100 V
b100011000111010001011110111000001110010011011110110101001100101011000110111010000101111010001100111001001101111011001000110111100101111011100110110100101101101001011110101001001000001010011010010111101100100011000010111010001100001001011110100001000101110011010000110010101111000 U
b10000000000 T
b1000000 S
b1100 R
b10011100010000 K
b1000110001110100010111101110000011100100110111101101010011001010110001101110100001011110100011001110010011011110110010001101111001011110111001101101001011011010010111101110010011000010110110101011111011001000110000101110100011000010101111101101111011101010111010001110000011101010111010000101111010000010101111101101111011101010111010001110000011101010111010000101110011101000111100001110100 J
b100011000111010001011110111000001110010011011110110101001100101011000110111010000101111010001100111001001101111011001000110111100101111011100110110100101101101001011110101001001000001010011010010111101100100011000010111010001100001001011110100000100101110011010000110010101111000 I
b10000000000 H
b1000000 G
b1100 F
b1010 >
$end
#0
$dumpvars
b0 l"
b0 k"
b0 j"
b0 i"
b0 h"
b1 g"
b111111111111 f"
b111111111111 e"
b111111111111 d"
b0 c"
b0 b"
b0 a"
b0 `"
b0 _"
b0 ^"
b0 ]"
b0 \"
b0 ["
b11111111111111 Z"
b0 Y"
b0 X"
b0 W"
b0 V"
bx U"
b0 T"
0S"
0R"
b0 Q"
b0 P"
b0 O"
b0 N"
bx M"
b0 L"
0K"
b0 J"
b0 I"
b11 >"
b0 ="
bz <"
bz ;"
bz :"
b0 9"
bz 8"
bz 7"
b0 6"
b0 5"
bx 4"
b0 3"
b0 2"
b0 1"
b0 0"
0/"
b0 ."
0-"
b0 ,"
b0 +"
b0 *"
0)"
b0 ("
0'"
b0 &"
b0 %"
b0 $"
0#"
b0 ""
0!"
b0 ~
b0 }
b0 |
b0 {
0z
b0 y
b0 x
b0 w
b0 t
b0 s
b0 r
b0 q
b0 p
b0 o
b0 n
b0 m
b0 l
b0 k
b0 j
b0 i
b0 h
b0 g
b10000000000000000000000000000101 f
bx e
b0 d
b111111111111 ]
1\
b0 [
b10000000000000000000000000000100 Z
bx Y
b0 X
b111111111111 Q
1P
b0 O
b10000000000000000000000000000011 N
bx M
b0 L
b0 E
1D
b0 C
0B
xA
bx @
1?
b0 =
b0 <
b0 ;
b0 :
b0 9
b0 8
b0 7
b0 6
b0 5
b0 4
b0 3
b0 2
b0 1
00
0/
0.
0-
b0 ,
b111111111111 +
b0 *
b0 )
0(
0'
b111111111111 &
b111111111111 %
b0 $
0#
0"
bz !
$end
#5
0?
#10
1?
#15
0?
#20
b110101111010101 s
b110101111010101 w
b110101111010101 |
b110101111010101 $"
b110101111010101 *"
b110011001111 5
b110011001111 k
b110011001111 +"
b110011001111 Y"
b1110101011010001 6
b1110101011010001 l
b1110101011010001 %"
b1110101011010001 X"
b1110000001110010 7
b1110000001110010 m
b1110000001110010 }
b1110000001110010 W"
b110101111010101 8
b110101111010101 n
b110101111010101 x
b110101111010101 V"
b110011001111 9
b110011001111 o
b110011001111 ,"
b110011001111 Q"
b1110101011010001 :
b1110101011010001 p
b1110101011010001 &"
b1110101011010001 P"
b1110000001110010 ;
b1110000001110010 q
b1110000001110010 ~
b1110000001110010 O"
b110101111010101 <
b110101111010101 r
b110101111010101 y
b110101111010101 N"
b110101111010101 =
b110101111010101 t
b110101111010101 J"
b110011001111111010101101000111100000011100100110101111010101 *
b110011001111111010101101000111100000011100100110101111010101 L
b110011001111111010101101000111100000011100100110101111010101 5"
bx )
bx X
bx 6"
bx $
bx d
bx 9"
b1 j"
1?
1B
#25
0?
#30
bx1 s
bx1 w
bx1 |
bx1 $"
bx1 *"
x/
bx b"
bx k"
x.
bx `"
1?
#35
0?
#40
b110101111010101 s
b110101111010101 w
b110101111010101 |
b110101111010101 $"
b110101111010101 *"
0/
b0 b"
b0 k"
0.
b10 j"
b100000000010010100000010001 `"
b10 g"
1?
b100000000010010100000010001 @
b100000000010010100000010001 4"
1A
#45
0?
#50
b1000000000000 ="
b1000000000000 l"
b1 b"
b1 k"
b1 a"
b1 _"
b1 ]"
b1111 i"
1?
#55
0?
#60
b10000000000000 ="
b10000000000000 l"
b10 b"
b10 k"
b110 g"
bx 9
bx o
bx ,"
bx Q"
bx :
bx p
bx &"
bx P"
bx ;
bx q
bx ~
bx O"
bx <
bx r
bx y
bx N"
b0 +
b0 Q
b0 d"
b10 a"
b1000000000000 L"
1?
#65
0?
#70
b0 ="
b0 l"
b0 &
b0 ]
b0 e"
b0 b"
b0 k"
1"
10
bx 5
bx k
bx +"
bx Y"
bx 6
bx l
bx %"
bx X"
bx 7
bx m
bx }
bx W"
bx 8
bx n
bx x
bx V"
b111101100101001 9
b111101100101001 o
b111101100101001 ,"
b111101100101001 Q"
b1110010010011011 :
b1110010010011011 p
b1110010010011011 &"
b1110010010011011 P"
b110111110001 ;
b110111110001 q
b110111110001 ~
b110111110001 O"
b1011000010011010 <
b1011000010011010 r
b1011000010011010 y
b1011000010011010 N"
b10000000000000 U"
b10000000000000 T"
b11 a"
b110 j"
b111101100101001111001001001101100001101111100011011000010011010 )
b111101100101001111001001001101100001101111100011011000010011010 X
b111101100101001111001001001101100001101111100011011000010011010 6"
1?
#75
0?
#80
b1010101001111010 5
b1010101001111010 k
b1010101001111010 +"
b1010101001111010 Y"
b1011001111001110 6
b1011001111001110 l
b1011001111001110 %"
b1011001111001110 X"
b110011011111110 7
b110011011111110 m
b110011011111110 }
b110011011111110 W"
b110010001100000 8
b110010001100000 n
b110010001100000 x
b110010001100000 V"
b0 %
b0 f"
b1010101001111010101100111100111001100110111111100110010001100000 $
b1010101001111010101100111100111001100110111111100110010001100000 d
b1010101001111010101100111100111001100110111111100110010001100000 9"
1z
b100111000100010 4
b100111000100010 j
b100111000100010 {
b100111000100010 0"
1!"
b101010010000101 3
b101010010000101 i
b101010010000101 ""
b101010010000101 1"
1'"
b1111110111110111 2
b1111110111110111 h
b1111110111110111 ("
b1111110111110111 2"
1-"
b1001110000011101 1
b1001110000011101 g
b1001110000011101 ."
b1001110000011101 3"
b0 a"
b11000000000000 Z"
1?
#85
0?
#90
0-"
1/"
b100011010010111 1
b100011010010111 g
b100011010010111 ."
b100011010010111 3"
0'"
1)"
b1011000111000101 2
b1011000111000101 h
b1011000111000101 ("
b1011000111000101 2"
0!"
1#"
b1011101110000011 3
b1011101110000011 i
b1011101110000011 ""
b1011101110000011 1"
0z
1-
b1011001010000010 4
b1011001010000010 j
b1011001010000010 {
b1011001010000010 0"
1?
#95
0?
#100
b101 g"
b1 &
b1 ]
b1 e"
b1 +
b1 Q
b1 d"
1z
0-
b100111000100010 4
b100111000100010 j
b100111000100010 {
b100111000100010 0"
1!"
0#"
b101010010000101 3
b101010010000101 i
b101010010000101 ""
b101010010000101 1"
1'"
0)"
b1111110111110111 2
b1111110111110111 h
b1111110111110111 ("
b1111110111110111 2"
1-"
0/"
b1001110000011101 1
b1001110000011101 g
b1001110000011101 ."
b1001110000011101 3"
b1 ^"
b1000000000001 L"
b10000000000001 T"
1?
#105
0?
#110
b1 %
b1 f"
0"
b110 g"
00
b1011001111111011 5
b1011001111111011 k
b1011001111111011 +"
b1011001111111011 Y"
b1101011110011111 6
b1101011110011111 l
b1101011110011111 %"
b1101011110011111 X"
b1001100011001101 7
b1001100011001101 m
b1001100011001101 }
b1001100011001101 W"
b1101010111101100 8
b1101010111101100 n
b1101010111101100 x
b1101010111101100 V"
b1000100100101110 9
b1000100100101110 o
b1000100100101110 ,"
b1000100100101110 Q"
b100011111111110 :
b100011111111110 p
b100011111111110 &"
b100011111111110 P"
b1011001000110011 ;
b1011001000110011 q
b1011001000110011 ~
b1011001000110011 O"
b1000010010011001 <
b1000010010011001 r
b1000010010011001 y
b1000010010011001 N"
b11000000000001 Z"
b101 j"
0-"
1/"
b100011010010111 1
b100011010010111 g
b100011010010111 ."
b100011010010111 3"
0'"
1)"
b1011000111000101 2
b1011000111000101 h
b1011000111000101 ("
b1011000111000101 2"
0!"
1#"
b1011101110000011 3
b1011101110000011 i
b1011101110000011 ""
b1011101110000011 1"
0z
1-
b1011001010000010 4
b1011001010000010 j
b1011001010000010 {
b1011001010000010 0"
b1011001111111011110101111001111110011000110011011101010111101100 $
b1011001111111011110101111001111110011000110011011101010111101100 d
b1011001111111011110101111001111110011000110011011101010111101100 9"
b1000100100101110010001111111111010110010001100111000010010011001 )
b1000100100101110010001111111111010110010001100111000010010011001 X
b1000100100101110010001111111111010110010001100111000010010011001 6"
1?
#115
0?
#120
b1110000001110010 s
b1110000001110010 w
b1110000001110010 |
b1110000001110010 $"
b1110000001110010 *"
1"
10
b1110000001110010 =
b1110000001110010 t
b1110000001110010 J"
b0 &
b0 ]
b0 e"
0-
0#"
0)"
0/"
b110 j"
b1 ["
b0 ^"
b10000000000000 T"
1?
#125
0?
#130
b0 %
b0 f"
b1010101001111010 5
b1010101001111010 k
b1010101001111010 +"
b1010101001111010 Y"
b1011001111001110 6
b1011001111001110 l
b1011001111001110 %"
b1011001111001110 X"
b110011011111110 7
b110011011111110 m
b110011011111110 }
b110011011111110 W"
b110010001100000 8
b110010001100000 n
b110010001100000 x
b110010001100000 V"
b11000000000000 Z"
1-"
b101011001111100 1
b101011001111100 g
b101011001111100 ."
b101011001111100 3"
1'"
b100111100011100 2
b100111100011100 h
b100111100011100 ("
b100111100011100 2"
1!"
b1111101010110110 3
b1111101010110110 i
b1111101010110110 ""
b1111101010110110 1"
1z
b1110110000100010 4
b1110110000100010 j
b1110110000100010 {
b1110110000100010 0"
b1010101001111010101100111100111001100110111111100110010001100000 $
b1010101001111010101100111100111001100110111111100110010001100000 d
b1010101001111010101100111100111001100110111111100110010001100000 9"
1?
#135
0?
#140
0z
1-
b101000010000010 4
b101000010000010 j
b101000010000010 {
b101000010000010 0"
0!"
1#"
b110000110110100 3
b110000110110100 i
b110000110110100 ""
b110000110110100 1"
0'"
1)"
b1011101010 2
b1011101010 h
b1011101010 ("
b1011101010 2"
0-"
1/"
b11110110 1
b11110110 g
b11110110 ."
b11110110 3"
1?
#145
0?
#150
b1 &
b1 ]
b1 e"
b10 +
b10 Q
b10 d"
b101 g"
b10000000000001 T"
b1000000000010 L"
b1 ^"
1-"
0/"
b101011001111100 1
b101011001111100 g
b101011001111100 ."
b101011001111100 3"
1'"
0)"
b100111100011100 2
b100111100011100 h
b100111100011100 ("
b100111100011100 2"
1!"
0#"
b1111101010110110 3
b1111101010110110 i
b1111101010110110 ""
b1111101010110110 1"
1z
0-
b1110110000100010 4
b1110110000100010 j
b1110110000100010 {
b1110110000100010 0"
1?
#155
0?
#160
b1011001111111011 5
b1011001111111011 k
b1011001111111011 +"
b1011001111111011 Y"
b1101011110011111 6
b1101011110011111 l
b1101011110011111 %"
b1101011110011111 X"
b1001100011001101 7
b1001100011001101 m
b1001100011001101 }
b1001100011001101 W"
b1101010111101100 8
b1101010111101100 n
b1101010111101100 x
b1101010111101100 V"
b1100101010010100 9
b1100101010010100 o
b1100101010010100 ,"
b1100101010010100 Q"
b101011101100110 :
b101011101100110 p
b101011101100110 &"
b101011101100110 P"
b11001101000001 ;
b11001101000001 q
b11001101000001 ~
b11001101000001 O"
b1101111000101000 <
b1101111000101000 r
b1101111000101000 y
b1101111000101000 N"
b110 g"
00
0"
b1 %
b1 f"
b1100101010010100010101110110011000110011010000011101111000101000 )
b1100101010010100010101110110011000110011010000011101111000101000 X
b1100101010010100010101110110011000110011010000011101111000101000 6"
b1011001111111011110101111001111110011000110011011101010111101100 $
b1011001111111011110101111001111110011000110011011101010111101100 d
b1011001111111011110101111001111110011000110011011101010111101100 9"
0z
1-
b101000010000010 4
b101000010000010 j
b101000010000010 {
b101000010000010 0"
0!"
1#"
b110000110110100 3
b110000110110100 i
b110000110110100 ""
b110000110110100 1"
0'"
1)"
b1011101010 2
b1011101010 h
b1011101010 ("
b1011101010 2"
0-"
1/"
b11110110 1
b11110110 g
b11110110 ."
b11110110 3"
b101 j"
b11000000000001 Z"
1?
#165
0?
#170
b1110101011010001 s
b1110101011010001 w
b1110101011010001 |
b1110101011010001 $"
b1110101011010001 *"
b0 &
b0 ]
b0 e"
b1110101011010001 =
b1110101011010001 t
b1110101011010001 J"
1"
10
b10000000000000 T"
b0 ^"
b10 ["
b110 j"
0/"
0)"
0#"
0-
1?
#175
0?
#180
b1010101001111010 5
b1010101001111010 k
b1010101001111010 +"
b1010101001111010 Y"
b1011001111001110 6
b1011001111001110 l
b1011001111001110 %"
b1011001111001110 X"
b110011011111110 7
b110011011111110 m
b110011011111110 }
b110011011111110 W"
b110010001100000 8
b110010001100000 n
b110010001100000 x
b110010001100000 V"
b0 %
b0 f"
b1010101001111010101100111100111001100110111111100110010001100000 $
b1010101001111010101100111100111001100110111111100110010001100000 d
b1010101001111010101100111100111001100110111111100110010001100000 9"
1z
b1110111010101000 4
b1110111010101000 j
b1110111010101000 {
b1110111010101000 0"
1!"
b100001000010001 3
b100001000010001 i
b100001000010001 ""
b100001000010001 1"
1'"
b1001011001000110 2
b1001011001000110 h
b1001011001000110 ("
b1001011001000110 2"
1-"
b1010101011010100 1
b1010101011010100 g
b1010101011010100 ."
b1010101011010100 3"
b11000000000000 Z"
1?
#185
0?
#190
0-"
1/"
b101010101001110 1
b101010101001110 g
b101010101001110 ."
b101010101001110 3"
0'"
1)"
b100101000010100 2
b100101000010100 h
b100101000010100 ("
b100101000010100 2"
0!"
1#"
b1010100100001111 3
b1010100100001111 i
b1010100100001111 ""
b1010100100001111 1"
0z
1-
b101001100001000 4
b101001100001000 j
b101001100001000 {
b101001100001000 0"
1?
#195
0?
#200
b101 g"
b1 &
b1 ]
b1 e"
b11 +
b11 Q
b11 d"
1z
0-
b1110111010101000 4
b1110111010101000 j
b1110111010101000 {
b1110111010101000 0"
1!"
0#"
b100001000010001 3
b100001000010001 i
b100001000010001 ""
b100001000010001 1"
1'"
0)"
b1001011001000110 2
b1001011001000110 h
b1001011001000110 ("
b1001011001000110 2"
1-"
0/"
b1010101011010100 1
b1010101011010100 g
b1010101011010100 ."
b1010101011010100 3"
b1 ^"
b1000000000011 L"
b10000000000001 T"
1?
#205
0?
#210
b1 %
b1 f"
0"
b110 g"
00
b1011001111111011 5
b1011001111111011 k
b1011001111111011 +"
b1011001111111011 Y"
b1101011110011111 6
b1101011110011111 l
b1101011110011111 %"
b1101011110011111 X"
b1001100011001101 7
b1001100011001101 m
b1001100011001101 }
b1001100011001101 W"
b1101010111101100 8
b1101010111101100 n
b1101010111101100 x
b1101010111101100 V"
b1011010001101000 9
b1011010001101000 o
b1011010001101000 ,"
b1011010001101000 Q"
b1111010110001111 :
b1111010110001111 p
b1111010110001111 &"
b1111010110001111 P"
b1110101100101100 ;
b1110101100101100 q
b1110101100101100 ~
b1110101100101100 O"
b10011001111100 <
b10011001111100 r
b10011001111100 y
b10011001111100 N"
b11000000000001 Z"
b101 j"
0-"
1/"
b101010101001110 1
b101010101001110 g
b101010101001110 ."
b101010101001110 3"
0'"
1)"
b100101000010100 2
b100101000010100 h
b100101000010100 ("
b100101000010100 2"
0!"
1#"
b1010100100001111 3
b1010100100001111 i
b1010100100001111 ""
b1010100100001111 1"
0z
1-
b101001100001000 4
b101001100001000 j
b101001100001000 {
b101001100001000 0"
b1011001111111011110101111001111110011000110011011101010111101100 $
b1011001111111011110101111001111110011000110011011101010111101100 d
b1011001111111011110101111001111110011000110011011101010111101100 9"
b1011010001101000111101011000111111101011001011000010011001111100 )
b1011010001101000111101011000111111101011001011000010011001111100 X
b1011010001101000111101011000111111101011001011000010011001111100 6"
1?
#215
0?
#220
1"
10
b0 &
b0 ]
b0 e"
0-
0#"
0)"
0/"
b110 j"
b11 ["
b0 ^"
b10000000000000 T"
1?
#225
0?
#230
b0 %
b0 f"
b1010101001111010 5
b1010101001111010 k
b1010101001111010 +"
b1010101001111010 Y"
b1011001111001110 6
b1011001111001110 l
b1011001111001110 %"
b1011001111001110 X"
b110011011111110 7
b110011011111110 m
b110011011111110 }
b110011011111110 W"
b110010001100000 8
b110010001100000 n
b110010001100000 x
b110010001100000 V"
b11000000000000 Z"
1-"
b101100011101000 1
b101100011101000 g
b101100011101000 ."
b101100011101000 3"
1'"
b10111110111111 2
b10111110111111 h
b10111110111111 ("
b10111110111111 2"
1!"
b11011011101100 3
b11011011101100 i
b11011011101100 ""
b11011011101100 1"
1z
b1100001100111100 4
b1100001100111100 j
b1100001100111100 {
b1100001100111100 0"
b1010101001111010101100111100111001100110111111100110010001100000 $
b1010101001111010101100111100111001100110111111100110010001100000 d
b1010101001111010101100111100111001100110111111100110010001100000 9"
1?
#235
0?
#240
0z
1-
b10011110011100 4
b10011110011100 j
b10011110011100 {
b10011110011100 0"
0!"
1#"
b1001110111101010 3
b1001110111101010 i
b1001110111101010 ""
b1001110111101010 1"
0'"
1)"
b1110001110001101 2
b1110001110001101 h
b1110001110001101 ("
b1110001110001101 2"
0-"
1/"
b1101100010 1
b1101100010 g
b1101100010 ."
b1101100010 3"
1?
#245
0?
#250
b1 &
b1 ]
b1 e"
b100 +
b100 Q
b100 d"
b101 g"
b10000000000001 T"
b1000000000100 L"
b1 ^"
1-"
0/"
b101100011101000 1
b101100011101000 g
b101100011101000 ."
b101100011101000 3"
1'"
0)"
b10111110111111 2
b10111110111111 h
b10111110111111 ("
b10111110111111 2"
1!"
0#"
b11011011101100 3
b11011011101100 i
b11011011101100 ""
b11011011101100 1"
1z
0-
b1100001100111100 4
b1100001100111100 j
b1100001100111100 {
b1100001100111100 0"
1?
#255
0?
#260
b1011001111111011 5
b1011001111111011 k
b1011001111111011 +"
b1011001111111011 Y"
b1101011110011111 6
b1101011110011111 l
b1101011110011111 %"
b1101011110011111 X"
b1001100011001101 7
b1001100011001101 m
b1001100011001101 }
b1001100011001101 W"
b1101010111101100 8
b1101010111101100 n
b1101010111101100 x
b1101010111101100 V"
b1101111010001101 9
b1101111010001101 o
b1101111010001101 ,"
b1101111010001101 Q"
b1000101011111 :
b1000101011111 p
b1000101011111 &"
b1000101011111 P"
b1001011000001011 ;
b1001011000001011 q
b1001011000001011 ~
b1001011000001011 O"
b1011100101100111 <
b1011100101100111 r
b1011100101100111 y
b1011100101100111 N"
b100 g"
00
0"
b1 %
b1 f"
b1101111010001101000100010101111110010110000010111011100101100111 )
b1101111010001101000100010101111110010110000010111011100101100111 X
b1101111010001101000100010101111110010110000010111011100101100111 6"
b1011001111111011110101111001111110011000110011011101010111101100 $
b1011001111111011110101111001111110011000110011011101010111101100 d
b1011001111111011110101111001111110011000110011011101010111101100 9"
0z
1-
b10011110011100 4
b10011110011100 j
b10011110011100 {
b10011110011100 0"
0!"
1#"
b1001110111101010 3
b1001110111101010 i
b1001110111101010 ""
b1001110111101010 1"
0'"
1)"
b1110001110001101 2
b1110001110001101 h
b1110001110001101 ("
b1110001110001101 2"
0-"
1/"
b1101100010 1
b1101100010 g
b1101100010 ."
b1101100010 3"
b101 j"
b11000000000001 Z"
1?
#265
0?
#270
b110101111010101 s
b110101111010101 w
b110101111010101 |
b110101111010101 $"
b110101111010101 *"
b0 &
b0 ]
b0 e"
b110101111010101 =
b110101111010101 t
b110101111010101 J"
b110 g"
b10000000000000 T"
b0 ^"
b0 ["
b100 j"
0/"
0)"
0#"
0-
1?
#275
0?
#280
b1010101001111010 5
b1010101001111010 k
b1010101001111010 +"
b1010101001111010 Y"
b1011001111001110 6
b1011001111001110 l
b1011001111001110 %"
b1011001111001110 X"
b110011011111110 7
b110011011111110 m
b110011011111110 }
b110011011111110 W"
b110010001100000 8
b110010001100000 n
b110010001100000 x
b110010001100000 V"
1"
10
b1 ,
b1 E
b1 c"
b1010101001111010101100111100111001100110111111100110010001100000 $
b1010101001111010101100111100111001100110111111100110010001100000 d
b1010101001111010101100111100111001100110111111100110010001100000 9"
b110 j"
b1 \"
b1 I"
1?
#285
0?
